﻿TargetImage,trials_loop.thisRepN,trials_loop.thisTrialN,trials_loop.thisN,trials_loop.thisIndex,data_collection_loop.thisRepN,data_collection_loop.thisTrialN,data_collection_loop.thisN,data_collection_loop.thisIndex,thisRow.t,notes,hello.started,welcome_text.started,spacebar_welcome.started,hello.stopped,spacebar_welcome.keys,spacebar_welcome.rt,spacebar_welcome.duration,general_instructions.started,instruction_text.started,spacebar_instruction.started,general_instructions.stopped,spacebar_instruction.keys,spacebar_instruction.rt,spacebar_instruction.duration,instr_shapes.started,shapeInstr_text.started,spacebar_shapes.started,image_square.started,image_plus.started,image_cross.started,instr_shapes.stopped,spacebar_shapes.keys,spacebar_shapes.rt,spacebar_shapes.duration,trial.started,practice_trial_square.started,practice_trial_plus.started,practice_trial_cross.started,trial_keyboard_response.started,far_left_tile.started,left_tile.started,right_tile.started,far_right_tile.started,image.started,image.stopped,trial.stopped,trial_keyboard_response.keys,trial_keyboard_response.corr,trial_keyboard_response.rt,trial_keyboard_response.duration,trialRespTimes,feedback_screen.started,text.started,spacebar_feedback.started,feedback_screen.stopped,spacebar_feedback.keys,spacebar_feedback.rt,spacebar_feedback.duration,start_actual_trial.started,instr_data_collection.started,spacebar_start_trials.started,start_actual_trial.stopped,spacebar_start_trials.keys,spacebar_start_trials.rt,spacebar_start_trials.duration,end_screen.started,end_text.started,spacebar_end.started,end_screen.stopped,spacebar_end.keys,spacebar_end.rt,spacebar_end.duration,participant,session,age,left-handed,Do you like this session?,output-path,date,expName,psychopyVersion,frameRate,expStart,
,,,,,,,,,,,0.011653300025500357,0.015791599988006055,0.015791599988006055,1.6842192999902181,space,1.6630177000188269,None,,,,,,,,,,,,,,,,,,,,,,,,,,,,,,,,,,,,,,,,,,,,,,,,,,,,,,,,4,3,2,False,Yes,../../sourcedata,2024-02-13_16h20.02.487,crtt_exercise,2023.2.3,59.81283368310384,2024-02-13 16h20.12.312323 +0100,
,,,,,,,,,,,,,,,,,,1.6842589000007138,1.700580800010357,1.700580800010357,3.2016093999845907,space,1.4882879000506364,None,,,,,,,,,,,,,,,,,,,,,,,,,,,,,,,,,,,,,,,,,,,,,,,,,4,3,2,False,Yes,../../sourcedata,2024-02-13_16h20.02.487,crtt_exercise,2023.2.3,59.81283368310384,2024-02-13 16h20.12.312323 +0100,
,,,,,,,,,,,,,,,,,,,,,,,,,3.201642800006084,3.220749899977818,3.220749899977818,3.220749899977818,3.220749899977818,3.220749899977818,7.852895800024271,space,4.620826099999249,None,,,,,,,,,,,,,,,,,,,,,,,,,,,,,,,,,,,,,,,4,3,2,False,Yes,../../sourcedata,2024-02-13_16h20.02.487,crtt_exercise,2023.2.3,59.81283368310384,2024-02-13 16h20.12.312323 +0100,
../../stimuli/shapes/target_cross.jpg,0,0,0,3,,,,,7.904681899992283,,,,,,,,,,,,,,,,,,,,,,,,,,7.85898720001569,7.904681899992283,7.904681899992283,7.904681899992283,7.904681899992283,8.369027199980337,8.369027199980337,8.369027199980337,8.369027199980337,9.269545899995137,9.48440539999865,9.718133000016678,c,1,1.7984227000270039,None,0.398422700027004,9.718478599970695,9.7338635000051,9.7338635000051,12.586704900022596,space,2.849305799987633,None,,,,,,,,,,,,,,,4,3,2,False,Yes,../../sourcedata,2024-02-13_16h20.02.487,crtt_exercise,2023.2.3,59.81283368310384,2024-02-13 16h20.12.312323 +0100,
../../stimuli/shapes/target_square.jpg,0,1,1,5,,,,,12.62688930000877,,,,,,,,,,,,,,,,,,,,,,,,,,12.587653799972031,12.62688930000877,12.62688930000877,12.62688930000877,12.62688930000877,13.101256299996749,13.101256299996749,13.101256299996749,13.101256299996749,14.001822700025514,14.200858999975026,14.285372100013774,v,1,1.6469034999608994,None,0.24690349996089944,14.285685500013642,14.300080300017726,14.300080300017726,14.91881210001884,space,0.6059876999934204,None,,,,,,,,,,,,,,,4,3,2,False,Yes,../../sourcedata,2024-02-13_16h20.02.487,crtt_exercise,2023.2.3,59.81283368310384,2024-02-13 16h20.12.312323 +0100,
../../stimuli/shapes/target_square.jpg,0,2,2,2,,,,,14.962023000000045,,,,,,,,,,,,,,,,,,,,,,,,,,14.919382099993527,14.962023000000045,14.962023000000045,14.962023000000045,14.962023000000045,15.43413910001982,15.43413910001982,15.43413910001982,15.43413910001982,15.935684399970341,16.134787200018764,16.186022699985188,b,0,1.2204778000013903,None,0.22047780000139028,16.186531300016213,16.199722299992573,16.199722299992573,18.418333999987226,space,2.2037777000223286,None,,,,,,,,,,,,,,,4,3,2,False,Yes,../../sourcedata,2024-02-13_16h20.02.487,crtt_exercise,2023.2.3,59.81283368310384,2024-02-13 16h20.12.312323 +0100,
../../stimuli/shapes/target_plus.jpg,0,3,3,0,,,,,18.46053139999276,,,,,,,,,,,,,,,,,,,,,,,,,,18.419021699985024,18.46053139999276,18.46053139999276,18.46053139999276,18.46053139999276,18.934205400000792,18.934205400000792,18.934205400000792,18.934205400000792,,,19.76877379999496,c,0,1.301579499966465,None,-0.4984205000335351,19.769148499995936,19.782979000010528,19.782979000010528,21.552107200026512,space,1.7547608999884687,None,,,,,,,,,,,,,,,4,3,2,False,Yes,../../sourcedata,2024-02-13_16h20.02.487,crtt_exercise,2023.2.3,59.81283368310384,2024-02-13 16h20.12.312323 +0100,
../../stimuli/shapes/target_plus.jpg,0,4,4,4,,,,,21.59490690001985,,,,,,,,,,,,,,,,,,,,,,,,,,21.55269899999257,21.59490690001985,21.59490690001985,21.59490690001985,21.59490690001985,22.067556000023615,22.067556000023615,22.067556000023615,22.067556000023615,,,22.43440740002552,v,0,0.8287237000185996,None,-0.7712762999814005,22.43463650002377,22.450259800010826,22.450259800010826,25.584941799985245,space,3.127352699986659,None,,,,,,,,,,,,,,,4,3,2,False,Yes,../../sourcedata,2024-02-13_16h20.02.487,crtt_exercise,2023.2.3,59.81283368310384,2024-02-13 16h20.12.312323 +0100,
../../stimuli/shapes/target_cross.jpg,0,5,5,1,,,,,25.62602780002635,,,,,,,,,,,,,,,,,,,,,,,,,,25.585524399997666,25.62602780002635,25.62602780002635,25.62602780002635,25.62602780002635,26.100798100000247,26.100798100000247,26.100798100000247,26.100798100000247,26.601688499969896,26.800707500020508,26.902351400000043,b,0,1.2721793000237085,None,0.2721793000237085,26.902809799998067,26.91644499998074,26.91644499998074,28.084287700010464,space,1.1644658999866806,None,,,,,,,,,,,,,,,4,3,2,False,Yes,../../sourcedata,2024-02-13_16h20.02.487,crtt_exercise,2023.2.3,59.81283368310384,2024-02-13 16h20.12.312323 +0100,
,,,,,,,,,,,,,,,,,,,,,,,,,,,,,,,,,,,,,,,,,,,,,,,,,,,,,,,,,,,28.08463820000179,28.09967109997524,28.09967109997524,32.501388099975884,space,4.3946574999717996,None,,,,,,,,4,3,2,False,Yes,../../sourcedata,2024-02-13_16h20.02.487,crtt_exercise,2023.2.3,59.81283368310384,2024-02-13 16h20.12.312323 +0100,
../../stimuli/shapes/target_cross.jpg,,,,,0,0,0,1,32.545569900015835,,,,,,,,,,,,,,,,,,,,,,,,,,32.505968099983875,32.545569900015835,32.545569900015835,32.545569900015835,32.545569900015835,33.01743649999844,33.01743649999844,33.01743649999844,33.01743649999844,33.50149120000424,33.70074699999532,33.86875429999782,v,0,1.315409799979534,None,0.315409799979534,33.869937299983576,33.88927609997336,33.88927609997336,36.21811880002497,space,2.3148082999978215,None,,,,,,,,,,,,,,,4,3,2,False,Yes,../../sourcedata,2024-02-13_16h20.02.487,crtt_exercise,2023.2.3,59.81283368310384,2024-02-13 16h20.12.312323 +0100,
../../stimuli/shapes/target_cross.jpg,,,,,0,1,1,3,36.25872669997625,,,,,,,,,,,,,,,,,,,,,,,,,,36.21909129997948,36.25872669997625,36.25872669997625,36.25872669997625,36.25872669997625,36.73380490002455,36.73380490002455,36.73380490002455,36.73380490002455,37.43473280000035,37.633864899980836,38.9174500000081,c,1,2.6463202000013553,None,1.4463202000013553,38.91771000000881,38.932658799982164,38.932658799982164,39.93426449998515,space,0.9945105999941006,None,,,,,,,,,,,,,,,4,3,2,False,Yes,../../sourcedata,2024-02-13_16h20.02.487,crtt_exercise,2023.2.3,59.81283368310384,2024-02-13 16h20.12.312323 +0100,
../../stimuli/shapes/target_plus.jpg,,,,,0,2,2,0,39.97371320001548,,,,,,,,,,,,,,,,,,,,,,,,,,39.93469369999366,39.97371320001548,39.97371320001548,39.97371320001548,39.97371320001548,40.434101700026076,40.434101700026076,40.434101700026076,40.434101700026076,40.934785299992654,41.13400700001512,41.851793900015764,b,1,1.8689014000119641,None,0.8689014000119641,41.852167700009886,41.86606329999631,41.86606329999631,43.518238199991174,space,1.6487372000119649,None,,,,,,,,,,,,,,,4,3,2,False,Yes,../../sourcedata,2024-02-13_16h20.02.487,crtt_exercise,2023.2.3,59.81283368310384,2024-02-13 16h20.12.312323 +0100,
../../stimuli/shapes/target_square.jpg,,,,,0,3,3,2,43.55614709999645,,,,,,,,,,,,,,,,,,,,,,,,,,43.51875310001196,43.55614709999645,43.55614709999645,43.55614709999645,43.55614709999645,44.03398269996978,44.03398269996978,44.03398269996978,44.03398269996978,45.134431099984795,45.33381589996861,45.769543099973816,v,1,2.210396899958141,None,0.6103968999581411,45.77004620002117,45.782443600008264,45.782443600008264,49.03434329997981,space,3.247280400013551,None,,,,,,,,,,,,,,,4,3,2,False,Yes,../../sourcedata,2024-02-13_16h20.02.487,crtt_exercise,2023.2.3,59.81283368310384,2024-02-13 16h20.12.312323 +0100,
../../stimuli/shapes/target_plus.jpg,,,,,0,4,4,4,49.0731602999731,,,,,,,,,,,,,,,,,,,,,,,,,,49.034876300022006,49.0731602999731,49.0731602999731,49.0731602999731,49.0731602999731,49.55030359997181,49.55030359997181,49.55030359997181,49.55030359997181,50.25122679997003,50.45031939999899,51.36815940000815,b,1,2.2838248999905773,None,1.0838248999905773,51.36865149997175,51.38246190000791,51.38246190000791,52.33398960001068,space,0.9362695000017993,None,,,,,,,,,,,,,,,4,3,2,False,Yes,../../sourcedata,2024-02-13_16h20.02.487,crtt_exercise,2023.2.3,59.81283368310384,2024-02-13 16h20.12.312323 +0100,
../../stimuli/shapes/target_square.jpg,,,,,0,5,5,5,52.37508219998563,,,,,,,,,,,,,,,,,,,,,,,,,,52.33461840002565,52.37508219998563,52.37508219998563,52.37508219998563,52.37508219998563,52.85002890002215,52.85002890002215,52.85002890002215,52.85002890002215,53.73446210002294,53.93366600002628,54.367399299982935,v,1,1.9765698999981396,None,0.5765698999981397,54.36762380000437,54.38259499997366,54.38259499997366,55.484238200006075,space,1.0871480000205338,None,,,,,,,,,,,,,,,4,3,2,False,Yes,../../sourcedata,2024-02-13_16h20.02.487,crtt_exercise,2023.2.3,59.81283368310384,2024-02-13 16h20.12.312323 +0100,
,,,,,,,,,,,,,,,,,,,,,,,,,,,,,,,,,,,,,,,,,,,,,,,,,,,,,,,,,,,,,,,,,,55.48457169998437,55.499611200008076,55.499611200008076,58.05145769997034,space,2.5399215999641456,None,4,3,2,False,Yes,../../sourcedata,2024-02-13_16h20.02.487,crtt_exercise,2023.2.3,59.81283368310384,2024-02-13 16h20.12.312323 +0100,
