﻿TargetImage,trials_loop.thisRepN,trials_loop.thisTrialN,trials_loop.thisN,trials_loop.thisIndex,thisRow.t,notes,hello.started,welcome_text.started,spacebar_welcome.started,hello.stopped,spacebar_welcome.keys,spacebar_welcome.rt,spacebar_welcome.duration,general_instructions.started,instruction_text.started,spacebar_instruction.started,general_instructions.stopped,spacebar_instruction.keys,spacebar_instruction.rt,spacebar_instruction.duration,instr_shapes.started,shapeInstr_text.started,spacebar_shapes.started,image_square.started,image_plus.started,image_cross.started,instr_shapes.stopped,spacebar_shapes.keys,spacebar_shapes.rt,spacebar_shapes.duration,trial.started,practice_trial_square.started,practice_trial_plus.started,practice_trial_cross.started,far_left_tile.started,left_tile.started,right_tile.started,far_right_tile.started,trial_keyboard_response.started,image.started,image.stopped,trial.stopped,trial_keyboard_response.keys,trial_keyboard_response.rt,trial_keyboard_response.duration,end_screen.started,end_text.started,spacebar_end.started,participant,session,age,left-handed,Do you like this session?,date,expName,psychopyVersion,frameRate,expStart,
,,,,,,,0.007680899987462908,0.014170499984174967,0.014170499984174967,0.859086100012064,space,0.8296347000286914,None,,,,,,,,,,,,,,,,,,,,,,,,,,,,,,,,,,,,,,,False,Yes,2024-02-13_14h51.24.717,crtt_exercise,2023.2.3,60.01154621160205,2024-02-13 14h51.32.433943 +0100,
,,,,,,,,,,,,,,0.8591241000103764,0.8743987999623641,0.8743987999623641,1.59326009999495,space,0.7016738000093028,None,,,,,,,,,,,,,,,,,,,,,,,,,,,,,,,,False,Yes,2024-02-13_14h51.24.717,crtt_exercise,2023.2.3,60.01154621160205,2024-02-13 14h51.32.433943 +0100,
,,,,,,,,,,,,,,,,,,,,,1.5933072000043467,1.6556114999693818,1.6556114999693818,1.6556114999693818,1.6556114999693818,1.6556114999693818,6.408809899992775,space,4.738681100017857,None,,,,,,,,,,,,,,,,,,,,,,False,Yes,2024-02-13_14h51.24.717,crtt_exercise,2023.2.3,60.01154621160205,2024-02-13 14h51.32.433943 +0100,
../../stimuli/shapes/target_square.jpg,0,0,0,5,6.476620699977502,,,,,,,,,,,,,,,,,,,,,,,,,,6.413656599994283,6.476620699977502,6.476620699977502,6.476620699977502,6.925703999993857,6.925703999993857,6.925703999993857,6.925703999993857,7.1243470999761485,8.026178999978583,8.240938299975824,8.591874699981418,c,1.457346300012432,None,,,,,,,False,Yes,2024-02-13_14h51.24.717,crtt_exercise,2023.2.3,60.01154621160205,2024-02-13 14h51.32.433943 +0100,
../../stimuli/shapes/target_plus.jpg,0,1,1,0,8.65043430001242,,,,,,,,,,,,,,,,,,,,,,,,,,8.59258299996145,8.65043430001242,8.65043430001242,8.65043430001242,9.10754649998853,9.10754649998853,9.10754649998853,9.10754649998853,9.307556799962185,9.791571000008844,9.99102789995959,10.175535199989099,v,0.8551794000086375,None,,,,,,,False,Yes,2024-02-13_14h51.24.717,crtt_exercise,2023.2.3,60.01154621160205,2024-02-13 14h51.32.433943 +0100,
../../stimuli/shapes/target_cross.jpg,0,2,2,3,10.246038799989037,,,,,,,,,,,,,,,,,,,,,,,,,,10.176097699964885,10.246038799989037,10.246038799989037,10.246038799989037,10.691044499981217,10.691044499981217,10.691044499981217,10.691044499981217,10.891076100000646,11.39196019998053,11.59106469998369,11.709569800004829,b,0.8149122000322677,None,,,,,,,False,Yes,2024-02-13_14h51.24.717,crtt_exercise,2023.2.3,60.01154621160205,2024-02-13 14h51.32.433943 +0100,
../../stimuli/shapes/target_square.jpg,0,3,3,2,11.794956199999433,,,,,,,,,,,,,,,,,,,,,,,,,,11.710257600003388,11.794956199999433,11.794956199999433,11.794956199999433,12.224307099997532,12.224307099997532,12.224307099997532,12.224307099997532,12.424458699999377,13.326346699963324,13.541040499985684,13.62656949996017,c,1.189767199975904,None,,,,,,,False,Yes,2024-02-13_14h51.24.717,crtt_exercise,2023.2.3,60.01154621160205,2024-02-13 14h51.32.433943 +0100,
../../stimuli/shapes/target_plus.jpg,0,4,4,4,13.707988999958616,,,,,,,,,,,,,,,,,,,,,,,,,,13.627318499959074,13.707988999958616,13.707988999958616,13.707988999958616,14.124607699981425,14.124607699981425,14.124607699981425,14.124607699981425,14.340984600014053,,,14.976966399990488,v,0.6246602000319399,None,,,,,,,False,Yes,2024-02-13_14h51.24.717,crtt_exercise,2023.2.3,60.01154621160205,2024-02-13 14h51.32.433943 +0100,
../../stimuli/shapes/target_cross.jpg,0,5,5,1,15.058473899960518,,,,,,,,,,,,,,,,,,,,,,,,,,14.978188299981412,15.058473899960518,15.058473899960518,15.058473899960518,15.491043899965007,15.491043899965007,15.491043899965007,15.491043899965007,15.691005699976813,16.775236299959943,16.97451839997666,17.24268949998077,b,1.5468950000358745,None,,,,,,,False,Yes,2024-02-13_14h51.24.717,crtt_exercise,2023.2.3,60.01154621160205,2024-02-13 14h51.32.433943 +0100,
,,,,,,,,,,,,,,,,,,,,,,,,,,,,,,,,,,,,,,,,,,,,,,17.243482899968512,17.25687320000725,17.25687320000725,,,,,,,,,,,
