﻿TargetImage,trials_loop.thisRepN,trials_loop.thisTrialN,trials_loop.thisN,trials_loop.thisIndex,thisRow.t,notes,hello.started,welcome_text.started,spacebar_welcome.started,hello.stopped,spacebar_welcome.keys,spacebar_welcome.rt,spacebar_welcome.duration,general_instructions.started,instruction_text.started,spacebar_instruction.started,general_instructions.stopped,spacebar_instruction.keys,spacebar_instruction.rt,spacebar_instruction.duration,instr_shapes.started,shapeInstr_text.started,spacebar_shapes.started,image_square.started,image_plus.started,image_cross.started,instr_shapes.stopped,spacebar_shapes.keys,spacebar_shapes.rt,spacebar_shapes.duration,trial.started,practice_trial_square.started,practice_trial_plus.started,practice_trial_cross.started,far_left_tile.started,left_tile.started,right_tile.started,far_right_tile.started,trial_keyboard_response.started,image.started,image.stopped,trial.stopped,trial_keyboard_response.keys,trial_keyboard_response.rt,trial_keyboard_response.duration,end_screen.started,end_text.started,spacebar_end.started,end_screen.stopped,spacebar_end.keys,spacebar_end.rt,spacebar_end.duration,participant,session,age,left-handed,Do you like this session?,date,expName,psychopyVersion,frameRate,expStart,
,,,,,,,0.013218100008089095,0.020388899953104556,0.020388899953104556,2.3764084999565966,space,2.3377277000108734,None,,,,,,,,,,,,,,,,,,,,,,,,,,,,,,,,,,,,,,,,,,,False,Yes,2024-02-13_14h37.47.104,crtt_exercise,2023.2.3,59.921000165701315,2024-02-13 14h37.54.265231 +0100,
,,,,,,,,,,,,,,2.376475400000345,2.405700999952387,2.405700999952387,3.552221199963242,space,1.1393484000000171,None,,,,,,,,,,,,,,,,,,,,,,,,,,,,,,,,,,,,False,Yes,2024-02-13_14h37.47.104,crtt_exercise,2023.2.3,59.921000165701315,2024-02-13 14h37.54.265231 +0100,
,,,,,,,,,,,,,,,,,,,,,3.552279900002759,3.5901715999934822,3.5901715999934822,3.5901715999934822,3.5901715999934822,3.5901715999934822,5.3023565000039525,space,1.705609299999196,None,,,,,,,,,,,,,,,,,,,,,,,,,,False,Yes,2024-02-13_14h37.47.104,crtt_exercise,2023.2.3,59.921000165701315,2024-02-13 14h37.54.265231 +0100,
../../stimuli/shapes/target_cross.jpg,0,0,0,1,5.413247699965723,,,,,,,,,,,,,,,,,,,,,,,,,,5.311080799961928,5.413247699965723,5.413247699965723,5.413247699965723,5.818754100007936,5.818754100007936,5.818754100007936,5.818754100007936,6.017480899987277,6.322860699961893,6.533888300007675,7.085687699960545,c,1.0609852999914438,None,,,,,,,,,,,False,Yes,2024-02-13_14h37.47.104,crtt_exercise,2023.2.3,59.921000165701315,2024-02-13 14h37.54.265231 +0100,
../../stimuli/shapes/target_plus.jpg,0,1,1,0,7.164130599994678,,,,,,,,,,,,,,,,,,,,,,,,,,7.0869177999557,7.164130599994678,7.164130599994678,7.164130599994678,7.600891899957787,7.600891899957787,7.600891899957787,7.600891899957787,7.800846599973738,8.901664200006053,9.1006686000037,9.769004500005394,v,1.9598786000278778,None,,,,,,,,,,,False,Yes,2024-02-13_14h37.47.104,crtt_exercise,2023.2.3,59.921000165701315,2024-02-13 14h37.54.265231 +0100,
../../stimuli/shapes/target_plus.jpg,0,2,2,4,9.843163299956359,,,,,,,,,,,,,,,,,,,,,,,,,,9.769831899960991,9.843163299956359,9.843163299956359,9.843163299956359,10.283911100006662,10.283911100006662,10.283911100006662,10.283911100006662,10.483961299993098,11.584637299994938,11.78389610000886,12.802454099990427,b,2.30244890000904,None,,,,,,,,,,,False,Yes,2024-02-13_14h37.47.104,crtt_exercise,2023.2.3,59.921000165701315,2024-02-13 14h37.54.265231 +0100,
../../stimuli/shapes/target_square.jpg,0,3,3,5,12.88164549996145,,,,,,,,,,,,,,,,,,,,,,,,,,12.803598299971782,12.88164549996145,12.88164549996145,12.88164549996145,13.317503899976145,13.317503899976145,13.317503899976145,13.317503899976145,13.51716230000602,14.41783089999808,14.617051299952436,15.035606599994935,v,1.5028949999832548,None,,,,,,,,,,,False,Yes,2024-02-13_14h37.47.104,crtt_exercise,2023.2.3,59.921000165701315,2024-02-13 14h37.54.265231 +0100,
../../stimuli/shapes/target_square.jpg,0,4,4,2,15.116121399973053,,,,,,,,,,,,,,,,,,,,,,,,,,15.036627599969506,15.116121399973053,15.116121399973053,15.116121399973053,15.550840999989305,15.550840999989305,15.550840999989305,15.550840999989305,15.75051749998238,16.251042199961375,16.45071869995445,16.935602099983953,v,1.1730346000404097,None,,,,,,,,,,,False,Yes,2024-02-13_14h37.47.104,crtt_exercise,2023.2.3,59.921000165701315,2024-02-13 14h37.54.265231 +0100,
../../stimuli/shapes/target_cross.jpg,0,5,5,3,17.01848919998156,,,,,,,,,,,,,,,,,,,,,,,,,,16.936545000004116,17.01848919998156,17.01848919998156,17.01848919998156,17.4503516999539,17.4503516999539,17.4503516999539,17.4503516999539,17.65062589995796,17.95149589999346,18.1503795000026,18.768546899955254,c,1.1107983000110835,None,,,,,,,,,,,False,Yes,2024-02-13_14h37.47.104,crtt_exercise,2023.2.3,59.921000165701315,2024-02-13 14h37.54.265231 +0100,
,,,,,,,,,,,,,,,,,,,,,,,,,,,,,,,,,,,,,,,,,,,,,,18.769077499979176,18.783021999988705,18.783021999988705,22.01755879999837,space,3.2201680000289343,None,,,,False,Yes,2024-02-13_14h37.47.104,crtt_exercise,2023.2.3,59.921000165701315,2024-02-13 14h37.54.265231 +0100,
