﻿thisRow.t,notes,hello.started,welcome_text.started,spacebar_welcome.started,hello.stopped,spacebar_welcome.keys,spacebar_welcome.rt,spacebar_welcome.duration,general_instructions.started,instruction_text.started,spacebar_instruction.started,general_instructions.stopped,spacebar_instruction.keys,spacebar_instruction.rt,spacebar_instruction.duration,instr_shapes.started,shapeInstr_text.started,spacebar_shapes.started,image_square.started,image_plus.started,image_cross.started,instr_shapes.stopped,spacebar_shapes.keys,spacebar_shapes.rt,spacebar_shapes.duration,trial.started,practice_trial_square.started,practice_trial_plus.started,practice_trial_cross.started,far_left_tile.started,left_tile.started,right_tile.started,far_right_tile.started,image.started,trial_keyboard_response.started,image.stopped,trial.stopped,trial_keyboard_response.keys,trial_keyboard_response.rt,trial_keyboard_response.duration,end_screen.started,end_text.started,spacebar_end.started,end_screen.stopped,spacebar_end.keys,spacebar_end.rt,spacebar_end.duration,participant,session,age,left-handed,Do you like this session?,date,expName,psychopyVersion,frameRate,expStart,
,,0.023541499977000058,0.03728459996636957,0.03728459996636957,1.2707289999816567,space,1.21853579999879,None,,,,,,,,,,,,,,,,,,,,,,,,,,,,,,,,,,,,,,,,,,,False,Yes,2024-02-13_13h46.36.787,crtt_exercise,2023.2.3,59.95462633529423,2024-02-13 13h46.44.807636 +0100,
,,,,,,,,,1.2708204999798909,1.2979971999884583,1.2979971999884583,3.563520999974571,space,2.260260099952575,None,,,,,,,,,,,,,,,,,,,,,,,,,,,,,,,,,,,,False,Yes,2024-02-13_13h46.36.787,crtt_exercise,2023.2.3,59.95462633529423,2024-02-13 13h46.44.807636 +0100,
,,,,,,,,,,,,,,,,3.563615799997933,3.6157818000065163,3.6157818000065163,3.6157818000065163,3.6157818000065163,3.6157818000065163,7.548525099991821,space,3.9244148999569006,None,,,,,,,,,,,,,,,,,,,,,,,,,,False,Yes,2024-02-13_13h46.36.787,crtt_exercise,2023.2.3,59.95462633529423,2024-02-13 13h46.44.807636 +0100,
,,,,,,,,,,,,,,,,,,,,,,,,,,7.5485871999990195,7.564034699986223,7.564034699986223,7.564034699986223,8.06263180001406,8.06263180001406,8.06263180001406,8.06263180001406,8.266047000011895,8.266047000011895,8.477980799973011,10.38259970000945,c,2.112515000044368,None,,,,,,,,,,,False,Yes,2024-02-13_13h46.36.787,crtt_exercise,2023.2.3,59.95462633529423,2024-02-13 13h46.44.807636 +0100,
,,,,,,,,,,,,,,,,,,,,,,,,,,,,,,,,,,,,,,,,,10.382748999982141,10.393819999997504,10.393819999997504,14.931318099959753,space,4.529310500016436,None,,,,False,Yes,2024-02-13_13h46.36.787,crtt_exercise,2023.2.3,59.95462633529423,2024-02-13 13h46.44.807636 +0100,
